[
    {
        "filter_name": "oplus_adfr_config"
    },
    {
        "version": 20210708
    },
    {
        "sub_version": "Phil_20210708_OP9RT"
    },
    {
        "touch_idle": true,
        "hw_enable": false,
        "sw_enable": true,
        "adfr_enable": false,
        "timeout": 4000,
        "hw_brightness_limit": 200,
        "hw_gray": true,
        "hw_gray_threshold": 55,
        "hw_gray_percent": 70,

        "blacklist": [
            "com.android.settings",
            "com.android.mms",
            "com.oplus.engineermode",
            "com.antutu.ABenchMark",
            "com.antutu.benchmark.full",
            "com.ludashi.benchmark2",
            "com.ludashi.benchmark"
        ],

        "sw_whitelist": [
            "com.gbits.atm.nearme.gamecenter",
            "com.netease.my.nearme.gamecenter",
            "com.netease.dhxy.nearme.gamecenter",
            "com.supercell.boombeach",
            "com.kiloo.subwaysurf",
            "com.tencent.tmgp.RunGame",
            "com.happyelements.AndroidAnimal",
            "com.jiguang.dtszj.nearme.gamecenter",
            "com.netease.l10.nearme.gamecenter",
            "com.foyo.hlsg",
            "tw.sonet.es",
            "com.iaw.dentistcutekids",
            "com.firegamestudio.connectanimals",
            "com.outfit7.mytalkingtomfree",
            "com.supercell.clashofclans",
            "com.king.candycrushsodasaga",
            "com.king.candycrushsaga",
            "com.king.candycrushjellysaga",
            "com.supercell.hayday",
            "com.kits.projectp",
            "com.miniclip.eightballpool",
            "com.outfit7.mytalkingangelafree",
            "com.linecorp.LGGRTHN",
            "com.king.farmheroessaga",
            "com.nextwave.wcc2",
            "com.walnut.strive",
            "com.ea.gp.minions",
            "com.teenpatti.hd.gold",
            "net.peakgames.amy",
            "com.rovio.angrybirdsrio",
            "com.rovio.baba",
            "com.king.petrescuesaga",
            "com.vng.g6.a.zombie",
            "com.prettysimple.criminalcaseandroid",
            "com.fungames.sniper3d",
            "com.games24x7.ultimaterummy.playstore",
            "com.rovio.angrybirds",
            "com.games24x7.teenpatti.playstore",
            "com.nordcurrent.canteenhd",
            "com.junerking.archery",
            "com.midasplayer.apps.bubblewitchsaga2"
        ]
    },
    {
        "cvt": true
    },
    {
        "frtc": true
    }
]

